{
    "name": "PlayerInputs",
    "maps": [
        {
            "name": "Player",
            "id": "095aab06-d7db-442e-9762-aec5ae9b0144",
            "actions": [
                {
                    "name": "Jump",
                    "type": "Button",
                    "id": "ca8c5e2e-c874-4b39-bab2-dae3b31f37af",
                    "expectedControlType": "Button",
                    "processors": "",
                    "interactions": "",
                    "initialStateCheck": false
                },
                {
                    "name": "Move",
                    "type": "Value",
                    "id": "38e700c3-1080-47d0-814c-f9a19ac54054",
                    "expectedControlType": "Vector2",
                    "processors": "",
                    "interactions": "",
                    "initialStateCheck": true
                },
                {
                    "name": "Interact",
                    "type": "Button",
                    "id": "3a0bcb7d-ac6a-46c0-a0b8-15e54a03ded1",
                    "expectedControlType": "Button",
                    "processors": "",
                    "interactions": "Hold(duration=0.2)",
                    "initialStateCheck": true
                },
                {
                    "name": "Push",
                    "type": "Value",
                    "id": "965d8ad7-683c-425f-9e8f-1e668a86de8f",
                    "expectedControlType": "Axis",
                    "processors": "",
                    "interactions": "",
                    "initialStateCheck": true
                },
                {
                    "name": "Crouch",
                    "type": "Button",
                    "id": "da3d4677-242c-4fb3-9e60-c96b13f255cb",
                    "expectedControlType": "Button",
                    "processors": "",
                    "interactions": "",
                    "initialStateCheck": false
                }
            ],
            "bindings": [
                {
                    "name": "",
                    "id": "bac9f3e4-0271-4c2b-85b7-32a13f2a9edc",
                    "path": "<Keyboard>/space",
                    "interactions": "",
                    "processors": "",
                    "groups": "",
                    "action": "Jump",
                    "isComposite": false,
                    "isPartOfComposite": false
                },
                {
                    "name": "2D Vector",
                    "id": "a186b3cf-02e0-44f8-970b-1b74f1b0cb80",
                    "path": "2DVector",
                    "interactions": "",
                    "processors": "",
                    "groups": "",
                    "action": "Move",
                    "isComposite": true,
                    "isPartOfComposite": false
                },
                {
                    "name": "up",
                    "id": "05572679-767a-45e9-a71f-ed2f093e439f",
                    "path": "<Keyboard>/w",
                    "interactions": "",
                    "processors": "",
                    "groups": "",
                    "action": "Move",
                    "isComposite": false,
                    "isPartOfComposite": true
                },
                {
                    "name": "down",
                    "id": "f1c0b7e8-114a-4395-a838-82c31e7999db",
                    "path": "<Keyboard>/s",
                    "interactions": "",
                    "processors": "",
                    "groups": "",
                    "action": "Move",
                    "isComposite": false,
                    "isPartOfComposite": true
                },
                {
                    "name": "left",
                    "id": "17a523fc-d151-445b-b6f8-21500f0ffa2e",
                    "path": "<Keyboard>/a",
                    "interactions": "",
                    "processors": "",
                    "groups": "",
                    "action": "Move",
                    "isComposite": false,
                    "isPartOfComposite": true
                },
                {
                    "name": "right",
                    "id": "5e3ccf6c-5cb4-4589-ae01-70ba95d99d1e",
                    "path": "<Keyboard>/d",
                    "interactions": "",
                    "processors": "",
                    "groups": "",
                    "action": "Move",
                    "isComposite": false,
                    "isPartOfComposite": true
                },
                {
                    "name": "",
                    "id": "7151d5a2-d88e-4da2-82ac-30c30f9a170a",
                    "path": "<Mouse>/leftButton",
                    "interactions": "",
                    "processors": "",
                    "groups": "",
                    "action": "Interact",
                    "isComposite": false,
                    "isPartOfComposite": false
                },
                {
                    "name": "1D Axis",
                    "id": "2aceb537-5350-4b80-a1fe-699bd81374bf",
                    "path": "1DAxis",
                    "interactions": "",
                    "processors": "",
                    "groups": "",
                    "action": "Push",
                    "isComposite": true,
                    "isPartOfComposite": false
                },
                {
                    "name": "negative",
                    "id": "90ebe4fe-98a6-4ab9-b80d-6af7b67677c7",
                    "path": "<Keyboard>/s",
                    "interactions": "",
                    "processors": "",
                    "groups": "",
                    "action": "Push",
                    "isComposite": false,
                    "isPartOfComposite": true
                },
                {
                    "name": "positive",
                    "id": "7fc9ce25-0ba4-4454-841d-c38e41b4f9d9",
                    "path": "<Keyboard>/w",
                    "interactions": "",
                    "processors": "",
                    "groups": "",
                    "action": "Push",
                    "isComposite": false,
                    "isPartOfComposite": true
                },
                {
                    "name": "",
                    "id": "f313972e-8136-4d14-97f6-0073af9f77c9",
                    "path": "<Keyboard>/ctrl",
                    "interactions": "",
                    "processors": "",
                    "groups": "",
                    "action": "Crouch",
                    "isComposite": false,
                    "isPartOfComposite": false
                }
            ]
        }
    ],
    "controlSchemes": []
}